[Definition]
titleIds = 00050000101C9300,00050000101C9400,00050000101C9500
name = PS5 Controller
path = "The Legend of Zelda: Breath of the Wild/Mods/PS5 Controller"
description = changes to the default controller ui to PS5
version = 3
fsPriority = 9999
